\relax 
\@writefile{toc}{\contentsline {section}{\numberline {1}Introduzione}{1}\protected@file@percent }
\@writefile{toc}{\contentsline {section}{\numberline {2}Lezione 01 2019-10-01}{2}\protected@file@percent }
\@writefile{toc}{\contentsline {section}{\numberline {3}Lezione 02 2019 10 02}{6}\protected@file@percent }
