\relax 
\@writefile{toc}{\contentsline {section}{\numberline {1}Geometria primo modulo}{1}\protected@file@percent }
\@writefile{toc}{\contentsline {section}{\numberline {2}1 lezione 2019 10 01}{1}\protected@file@percent }
