\relax 
\@writefile{toc}{\contentsline {section}{\numberline {1}Geometria primo modulo}{1}\protected@file@percent }
\@writefile{toc}{\contentsline {section}{\numberline {2}1 lezione 2019 10 01}{1}\protected@file@percent }
\@writefile{toc}{\contentsline {section}{\numberline {3}Lezione 02 2019 10 02}{4}\protected@file@percent }
\@writefile{toc}{\contentsline {section}{\numberline {4}lezione 03 2019/10/03}{5}\protected@file@percent }
\@writefile{toc}{\contentsline {section}{\numberline {5}lezione 04 2019 10 04}{5}\protected@file@percent }
\@writefile{toc}{\contentsline {section}{\numberline {6}lezione 05 2019 10 08}{6}\protected@file@percent }
